<?xml version="1.0" encoding="UTF-8" standalone="no"?>
<!-- Created with Inkscape (http://www.inkscape.org/) -->

<svg
   xmlns:dc="http://purl.org/dc/elements/1.1/"
   xmlns:cc="http://creativecommons.org/ns#"
   xmlns:rdf="http://www.w3.org/1999/02/22-rdf-syntax-ns#"
   xmlns:svg="http://www.w3.org/2000/svg"
   xmlns="http://www.w3.org/2000/svg"
   xmlns:sodipodi="http://sodipodi.sourceforge.net/DTD/sodipodi-0.dtd"
   xmlns:inkscape="http://www.inkscape.org/namespaces/inkscape"
   version="1.1"
   id="svg815"
   width="400"
   height="244"
   viewBox="0 0 400 244"
   sodipodi:docname="lvk.svg"
   inkscape:version="0.92.2 (5c3e80d, 2017-08-06)">
  <metadata
     id="metadata821">
    <rdf:RDF>
      <cc:Work
         rdf:about="">
        <dc:format>image/svg+xml</dc:format>
        <dc:type
           rdf:resource="http://purl.org/dc/dcmitype/StillImage" />
        <dc:title></dc:title>
      </cc:Work>
    </rdf:RDF>
  </metadata>
  <defs
     id="defs819" />
  <sodipodi:namedview
     pagecolor="#ffffff"
     bordercolor="#666666"
     borderopacity="1"
     objecttolerance="10"
     gridtolerance="10"
     guidetolerance="10"
     inkscape:pageopacity="0"
     inkscape:pageshadow="2"
     inkscape:window-width="1920"
     inkscape:window-height="1017"
     id="namedview817"
     showgrid="false"
     inkscape:zoom="3.4754098"
     inkscape:cx="200"
     inkscape:cy="122"
     inkscape:window-x="-8"
     inkscape:window-y="-8"
     inkscape:window-maximized="1"
     inkscape:current-layer="svg815" />
  <path
     style="fill:#999999"
     d="M 191.5,239.39833 C 154.57559,235.64355 128.49325,222.89334 102.46871,195.87587 80.46011,173.02757 57.446196,136.75402 32.455083,85.523375 16.695881,53.217731 6,28.515425 6,24.424945 6,20.25014 8.423606,17.254183 12.779483,16.04444 c 4.087578,-1.135229 57.866313,-1.465281 63.251767,-0.38819 5.719008,1.143802 9.997406,6.697346 14.927581,19.376643 10.332589,26.573092 31.639199,65.018327 42.587109,76.843387 8.45207,9.12924 14.00559,10.41974 18.17182,4.22268 3.04917,-4.53549 4.18959,-9.14006 5.29231,-21.368263 1.70313,-18.886335 0.73147,-45.294477 -2.0542,-55.829658 -2.01726,-7.629138 -8.27258,-13.832143 -16.06469,-15.93034 -2.0937,-0.563777 -4.09362,-1.489244 -4.44427,-2.056594 C 133.5076,19.39427 138.41129,12.876766 142.65854,10 l 3.691,-2.5 35.41031,-0.298021 C 215.9677,6.914078 217.31692,6.975005 221.49211,8.996181 229.5247,12.884689 229.42938,12.28525 230,62.5 c 0.47815,42.07702 0.59199,44.19667 2.60482,48.5 3.71703,7.94683 8.41396,10.18339 13.87345,6.60619 3.49472,-2.28982 12.56968,-13.41342 19.66656,-24.10619 7.8471,-11.823136 21.18043,-38.365526 28.38226,-56.5 3.16715,-7.975 6.61681,-15.726208 7.66591,-17.224907 3.21901,-4.598546 6.46366,-4.930954 44.807,-4.590396 33.66867,0.299037 35.68055,0.421013 39,2.364463 5.12591,3.001091 5.89268,7.153239 3.04953,16.513682 -4.37929,14.417866 -10.62635,24.960918 -37.79497,63.785958 -19.37759,27.69134 -23.22879,34.35896 -23.24479,40.24392 -0.0161,5.94084 3.62496,10.85966 23.23902,31.39385 24.73453,25.89486 35.81415,40.56373 38.66884,51.1956 1.49925,5.58374 0.0445,11.82486 -3.5974,15.43309 L 383.5,238.90943 348,239.0525 c -37.15556,0.14975 -38.0754,0.0626 -46.76542,-4.4312 -5.1387,-2.65732 -13.95915,-11.4412 -27.72515,-27.61022 -17.11745,-20.10551 -23.24505,-24.26763 -30.33204,-20.60281 -6.42965,3.3249 -10.47689,14.29633 -12.06033,32.6936 -1.53252,17.80562 -3.71209,19.70583 -23.30542,20.31834 -6.7714,0.21168 -14.11164,0.20183 -16.31164,-0.0219 z"
     id="path825"
     inkscape:connector-curvature="0" />
</svg>
